Capítulo 3 Análisis exploratorio de datos (EDA) | Notas de métodos estadísticos
…
# Unión de todas las tablas
bind_rows(type_week, store_week, dep_week, holi_week)

## # A tibble: 96 × 11
##    variable niveles     n  media     ds mediana minimo  maximo    Q1     Q3    IQR
##    <chr>    <chr>   <int>  <dbl>  <dbl>   <dbl>  <dbl>   <dbl> <dbl>  <dbl>  <dbl>
##  1 type     A        9872 23675. 30129.  11944.  -1098 293966. 3862. 31982. 28120.
##  2 type     B         902 25697. 31156.  13336.   -798 232559. 3998. 38195. 34197.
##  3 store    1         901 20897. 26994.   9775.   -698 140504. 3199  30186. 26987.
##  4 store    2         897 26517. 32682.  13765.  -1098 178983. 4892. 34612. 29720.
##  5 store    4         901 26127. 31202.  13064.    -88 165766. 4571. 35552. 30982.
##  6 store    6         894 21561. 23658.  13201.   -698 119812. 4284. 30962. 26678.
##  7 store    10        902 25697. 31156.  13336.   -798 232559. 3998. 38195. 34197.
##  8 store    13        913 25664. 31499.  13050.    -98 166872. 4396. 34686. 30290.
##  9 store    14        885 30384. 40467.  14793.   -498 293966. 4386  37384. 32998.
## 10 store    19        906 19931. 24662.  11092.   -449 147449. 3695. 24861. 21166.
## # ℹ 86 more rows
…
